{
  "packages": ["packages/*", "tooling/*"],
  "version": "independent",
  "npmClient": "yarn",
  "useWorkspaces": true,
  "stream": true,
  "command": {
    "version": { "exact": true },
    "publish": {
      "registry": "https://gitlab.com/api/v4/projects/25380352/packages/npm/",
      "conventionalCommits": true,
      "message": "chore(release): publish",
      "ignoreChanges": ["**/*.stories.tsx", "**/*.md", "**/tests/**"],
      "allowBranch": ["main", "master", "release/*"]
    }
  }
}
